Chapter 1 Introduction to Tidy Finance | Tidy Finance with R
…
We first download daily prices for one stock market ticker, e.g., the Apple stock, AAPL, directly from the data provider Yahoo!F
inance.
To download the data, you can use the command tq_get.
If you do not know how to use it, make sure you read the help file by calling ?tq_get.
We especially recommend taking a look at the examples section of the documentation.
We request daily data for a period of more than 20 years.

prices <- tq_get("AAPL",
  get = "stock.prices",
  from = "2000-01-01",
  to = "2021-12-31"
)
prices

# A tibble: 5,535 × 8
  symbol date        open  high   low close    volume adjusted
  <chr>  <date>     <dbl> <dbl> <dbl> <dbl>     <dbl>    <dbl>
1 AAPL   2000-01-03 0.936 1.00  0.908 0.999 535796800    0.852
2 AAPL   2000-01-04 0.967 0.988 0.903 0.915 512377600    0.780
3 AAPL   2000-01-05 0.926 0.987 0.920 0.929 778321600    0.792
4 AAPL   2000-01-06 0.948 0.955 0.848 0.848 767972800    0.723
5 AAPL   2000-01-07 0.862 0.902 0.853 0.888 460734400    0.757
# … with 5,530 more rows
…
Figure 1.1: Prices are in USD, adjusted for dividend payments and stock splits.

 Instead of analyzing prices, we compute daily net returns defined as \(r_t = p_t / p_{t-1} - 1\) where \(p_t\) is the adjusted day \(t\) price.
In that context, the function lag() is helpful, which returns the previous value in a vector.

returns <- prices |>
  arrange(date) |>
  mutate(ret = adjusted / lag(adjusted) - 1) |>
  select(symbol, date, ret)
returns

# A tibble: 5,535 × 3
  symbol date           ret
  <chr>  <date>       <dbl>
1 AAPL   2000-01-03 NA     
2 AAPL   2000-01-04 -0.0843
3 AAPL   2000-01-05  0.0146
4 AAPL   2000-01-06 -0.0865
5 AAPL   2000-01-07  0.0474
# … with 5,530 more rows
…
1.2 Scaling up the analysis

As a next step, we generalize the code from before such that all the computations can handle an arbitrary vector of tickers (e.g., all constituents of an index).
Following tidy principles, it is quite easy to download the data, plot the price time series, and tabulate the summary statistics for an arbitrary number of assets.

This is where the tidyverse magic starts: tidy data makes it extremely easy to generalize the computations from before to as many assets as you like.
The following code takes any vector of tickers, e.g., ticker <- c("AAPL", "MMM", "BA"), and automates the download as well as the plot of the price time series.
In the end, we create the table of summary statistics for an arbitrary number of assets.
We perform the analysis with data from all current constituents of the Dow Jones Industrial Average index.

ticker <- tq_index("DOW")
ticker

# A tibble: 30 × 8
  symbol company          ident…¹ sedol weight sector share…² local…³
  <chr>  <chr>            <chr>   <chr>  <dbl> <chr>    <dbl> <chr>  
1 UNH    UnitedHealth Gr… 91324P… 2917… 0.112  Healt… 5902947 USD    
2 GS     Goldman Sachs G… 38141G… 2407… 0.0719 Finan… 5902947 USD    
3 HD     Home Depot Inc.  437076… 2434… 0.0580 Consu… 5902947 USD    
4 MCD    McDonald's Corp… 580135… 2550… 0.0562 Consu… 5902947 USD    
5 AMGN   Amgen Inc.       031162… 2023… 0.0548 Healt… 5902947 USD    
# … with 25 more rows, and abbreviated variable names ¹​identifier,
#   ²​shares_held, ³​local_currency
…
